transaction_id,product_id,reference_number,date_added,report_code,state_postal_code,account_base,account_suffix,account_id,customer_number,drivers_license_number,dfs_number,full_quote_back,name_prefix,last_name,first_name,middle_name,name_suffix,record_version,dob,special_billing_id,processing_status,report_usage_code,billing_type_id,billing_report_code,price,pricing_error_code,free,request_format,result_format,result_fullfilling_product,report_options,transaction_code,return_node_id,request_node_id,order_received_date,result_returned_date,order_status_code,login_history_id,ip_address,response_time,esp_method,batch_job_id,batch_seq_number,is_migrated,is_active,user_added,user_changed,date_changed,date_purge_required,order_detail_id,gender,ssn,mvr_type,permissible_purpose,lexid,lexid_output,lexid_logic,compliance_interface,environment,originator,global_id,local_id,caller_id
"DAW20230501143859215",9,"2023DA231215WL3K4",2023-05-01 18:39:03,\N,"IL","586519","",\N,\N,"D55254077903","1570012","2",\N,"DOMINGUEZ","MARIA","","",1.0000,"19771024","","H",\N,\N,\N,0.000000000,0,0,"INFORM","INFORM","DMV",\N,\N,"","",2023-05-01 18:38:59,2023-05-01 18:39:02,100,\N,"10.247.36.62",2.9830,\N,\N,\N,0,0,"mvr_log_fwd",\N,\N,\N,\N,"","",\N,"I","97912295839","Y","Y","Y",\N,"WORKFLOW","HmwdVF1E9ueYyXGgezPxia","HmwdVHeQ98gtqQYaabeVDD","HmwdVHQtj7smBBehSVK3Qu"
"CCW20230501170146265",9,"2023CC23121701PD4",2023-05-01 21:01:51,\N,"TX","361295","AAA",\N,\N,"34366456","1570012","a15b0235-b9ef-4c4e-bb79-758c5f8a7c70",\N,"MENDOZA MORFIN","JUAN J","","",1.0000,"19920522","","C",\N,\N,\N,0.000000000,0,0,"INFORM","INFORM","DMV",\N,\N,"","",2023-05-01 21:01:46,2023-05-01 21:01:50,100,\N,"10.247.44.81",4.1450,\N,\N,\N,0,0,"mvr_log_fwd",\N,\N,\N,\N,"M","",\N,"I","173331988654","Y","Y","Y",\N,"WORKFLOW","HmxTYcZVg2bx7yG92fTdrR","HmxTYfGZRTo2XpmCu3y9br","HmxTYf7afD6uQHaSaT6WV1"
"16209731T000003",9,"20235FFRGZP",2023-05-02 00:08:52,\N,"CA","801003","NEW",\N,\N,"C2710533","0122250","0324C824FBA320230501000ATLGKCPS                             ",\N,"LOCKE","RONALD",\N,\N,1.0000,"19650509","M1","R",\N,\N,\N,0.000000000,0,0,"INFORM","100B-CC","PRE",\N,\N,"","",2023-05-01 19:12:01,2023-05-01 20:06:38,100,\N,"10.194.6.22",0.0000,\N,18205021,1714,0,0,"bpsbatch",\N,\N,\N,3972064491,"M","564451091",\N,\N,\N,\N,\N,\N,\N,"BR3","HMXZTEUMZP5AHFG5SFMWNH","HmyVmDSh76hUvnVheSd5Pz",\N
"BDW20230502085916456",9,"2023BD231223J22PT",2023-05-02 12:59:19,\N,"IL","501159","END",\N,\N,"S35281305055","","1BPA  1405021004S35281305055             050223 0502234000IL",\N,"STINES","TRENTON","","",1.0000,"20050224","617259","H",\N,\N,\N,0.000000000,0,0,"INFORM","INFORM","DMV",\N,\N,"","",2023-05-02 12:59:16,2023-05-02 12:59:18,100,\N,"10.247.36.63",1.9970,\N,\N,\N,0,0,"mvr_log_fwd",\N,\N,\N,\N,"M","0",\N,"I",\N,"N","Y","Y",\N,"WORKFLOW","Hn41pdqfoqmSQV7ezqEtvo","Hn41pdqCo1NCwHr5zuFZjq",""
"BBW20230502115915803",9,"2023BB231224R35B2",2023-05-02 15:59:19,\N,"CT","360935","AAA",\N,\N,"248895112","1570012","02,QCTAC,226592994,500069755A,NunlfJbzli-kDWur9LpRP9A",\N,"GRAY","DOMINIC","PETER","",1.0000,"19941220","","C",\N,\N,\N,0.000000000,0,0,"INFORM","INFORM","DMV",\N,\N,"","",2023-05-02 15:59:16,2023-05-02 15:59:18,100,\N,"10.247.36.63",2.1250,\N,\N,\N,0,0,"mvr_log_fwd",\N,\N,\N,\N,"M","",\N,"I","192135485389","Y","Y","Y",\N,"WORKFLOW","Hn54Q9B6693mTZnuHZQcbT","Hn54QJowztgrM6dQzwBua1","Hn54QJjTqNJfr8W8iB9Cq7"
"AAW20230502123642312",9,"2023AA2312252MBBC",2023-05-02 16:36:46,\N,"TX","518875","GNB",\N,\N,"47299489","1570012","",\N,"BOWMAN","CHARLES","ANDREW","",1.0000,"20060130","","C",\N,\N,\N,0.000000000,0,0,"INFORM","INFORM","DMV",\N,\N,"","",2023-05-02 16:36:42,2023-05-02 16:36:46,100,\N,"10.247.44.82",3.3150,\N,\N,\N,0,0,"mvr_log_fwd",\N,\N,\N,\N,"","",\N,"I","240734558564","N","Y","N",\N,"WORKFLOW","Hn5H1DKwbB3kM8kfW6Zc7A","Hn5H1EQra1C9BQ4v6sxyYt","Hn5H1EJnfwv7ePM1EZ8MhH"
"16230701T000376",9,"20235FXQF7C",2023-05-04 01:17:03,\N,"IN","801014","REN",\N,\N,"9370644660","0122238","14387418FBC0202305030006OG70EPL                             ",\N,"BLACKSTONE","LIENNA","J",\N,1.0000,"20050922","MG","R",\N,\N,\N,0.000000000,0,0,"INFORM","100B-CC","PRE",\N,\N,"","",2023-05-03 19:15:25,2023-05-03 21:12:42,100,\N,"10.194.6.20",0.0000,\N,18259951,3411,0,0,"bpsbatch",\N,\N,\N,3984185921,"F",\N,\N,\N,\N,\N,\N,\N,\N,"BR3","HNFHHUGXIHJF19SIDNKEFQ","HnGZLYgFnzGxJ5SnZbd2mY",\N
"16230701T000627",9,"20235FXQJ11",2023-05-04 01:17:06,\N,"IN","801014","NEW",\N,\N,"0031709465","0122238","1409F218FC1A202305020006OEM5APL                             ",\N,"CONNER","LINDSAY",\N,\N,1.0000,"19830928","M6","R",\N,\N,\N,0.000000000,0,0,"INFORM","100B-CC","PRE",\N,\N,"","",2023-05-03 19:15:25,2023-05-03 21:12:42,100,\N,"10.194.6.20",0.0000,\N,18259951,3660,0,0,"bpsbatch",\N,\N,\N,3984188431,"F","280867800",\N,\N,\N,\N,\N,\N,\N,"BR3","HNFHHFEDCY9PUB4X7CZM8U","HnGZLYgFnzGxJ5SnZbd2mY",\N
"16230751T000224",9,"20235FXQNJP",2023-05-04 01:17:08,\N,"MO","801025","NEW",\N,\N,"W200015011","0122232","25396014FBC5202305020007MU53APG                             ",\N,"LIST","MOSHE","C",\N,1.0000,"19941006","M7","C",\N,\N,\N,0.000000000,0,0,"INFORM","100B-CC","INH",\N,\N,"","",2023-05-03 19:35:21,2023-05-03 21:12:42,100,\N,"10.194.6.20",0.0000,\N,18259951,3887,0,0,"bpsbatch",\N,\N,\N,3984192501,"M",\N,\N,\N,\N,\N,\N,\N,\N,"BR3","HNFO2BKXW7YZB739CXDNMR","HnGZLYgFnzGxJ5SnZbd2mY",\N
"16230751T000276",9,"20235FXQP41",2023-05-04 01:17:08,\N,"MO","801025","NEW",\N,\N,"494741105","0122232","25375614FC0E202305020007MU5TQPG                             ",\N,"CANTLEY","ROBERT",\N,\N,1.0000,"19670328","M7","C",\N,\N,\N,0.000000000,0,0,"INFORM","100B-CC","INH",\N,\N,"","",2023-05-03 19:35:21,2023-05-03 21:12:42,100,\N,"10.194.6.20",0.0000,\N,18259951,3939,0,0,"bpsbatch",\N,\N,\N,3984193021,"M","494741105",\N,\N,\N,\N,\N,\N,\N,"BR3","HNFO2HN43ITMNTZEJW5XYE","HnGZLYgFnzGxJ5SnZbd2mY",\N
"16230751T000350",9,"20235FXQPXP",2023-05-04 01:17:08,\N,"MO","801025","NEW",\N,\N,"A050224010","0122232","25396014FBC5202305030007MU8TUPG                             ",\N,"BROWNING","ALEXANDRA",\N,\N,1.0000,"19990612","MG","C",\N,\N,\N,0.000000000,0,0,"INFORM","100B-CC","INH",\N,\N,"","",2023-05-03 19:35:21,2023-05-03 21:12:42,100,\N,"10.194.6.20",0.0000,\N,18259951,4012,0,0,"bpsbatch",\N,\N,\N,3984193761,"F",\N,\N,\N,\N,\N,\N,\N,\N,"BR3","HNFO2PPPUXYZGT9T6WYKBE","HnGZLYgFnzGxJ5SnZbd2mY",\N
"15777631T000619",9,"202351GBZBP",2023-05-04 01:17:10,\N,"DE","801008","NEW",\N,\N,"2208319","0122260","08158D21FAA620230224002XR6FEFDP                             ",\N,"LOPEZ PATISHTAN","FRANCISCO",\N,\N,1.0000,"19911004","MY","H",\N,\N,\N,0.000000000,0,0,"INFORM","100B-CC","DMV",\N,\N,"","",2023-02-27 11:35:45,2023-05-03 21:12:42,100,\N,"10.194.6.20",0.0000,\N,18259951,1079,0,0,"bpsbatch",\N,\N,\N,3680936421,"M",\N,\N,\N,\N,\N,\N,\N,\N,"BR3","HCRBBXZAFF9R8ZM6EPZTJQ","HnGZLYgFnzGxJ5SnZbd2mY",\N
"15787271T000827",9,"202351NCQ71",2023-05-04 01:17:10,\N,"DE","801008","NEW",\N,\N,"1599137","0122260","08077E21FAD520230227000AEPT15PP                             ",\N,"O'NEAL","DAWN","H",\N,1.0000,"19910517","M1","H",\N,\N,\N,0.000000000,0,0,"INFORM","100B-CC","DMV",\N,\N,"","",2023-02-28 11:33:47,2023-05-03 21:12:42,100,\N,"10.194.6.20",0.0000,\N,18259951,1080,0,0,"bpsbatch",\N,\N,\N,3685817011,"F","222803864",\N,\N,\N,\N,\N,\N,\N,"BR3","HCZZGXY5MAY1UO9QFZGAOB","HnGZLYgFnzGxJ5SnZbd2mY",\N
"15903171T000898",9,"202354XMPGC",2023-05-04 01:17:10,\N,"ME","801019","NEW",\N,\N,"9244293","0122265","19108728FB52202303160008RXTOCPX                             ",\N,"STAPLES","KAYLA",\N,\N,1.0000,"19880512","M1","H",\N,\N,\N,0.000000000,0,0,"INFORM","100B-CC","DMV",\N,\N,"","",2023-03-17 11:25:11,2023-05-03 21:12:42,100,\N,"10.194.6.20",0.0000,\N,18259951,1082,0,0,"bpsbatch",\N,\N,\N,3765412331,"F","004886929",\N,\N,\N,\N,\N,\N,\N,"BR3","HFSED1NJAM1T4PDJYZSWKP","HnGZLYgFnzGxJ5SnZbd2mY",\N
"15903171T000899",9,"202354XMPGP",2023-05-04 01:17:10,\N,"ME","801019","NEW",\N,\N,"9244293","0122265","19108728FB52202303160008RXTGKPX                             ",\N,"STAPLES","KAYLA",\N,\N,1.0000,"19880512","M1","H",\N,\N,\N,0.000000000,0,0,"INFORM","100B-CC","DMV",\N,\N,"","",2023-03-17 11:25:11,2023-05-03 21:12:42,100,\N,"10.194.6.20",0.0000,\N,18259951,1083,0,0,"bpsbatch",\N,\N,\N,3765412341,"F","004886929",\N,\N,\N,\N,\N,\N,\N,"BR3","HFSED4ARALNRQMOJVHU4UD","HnGZLYgFnzGxJ5SnZbd2mY",\N
"15903171T000900",9,"202354XMPH1",2023-05-04 01:17:10,\N,"ME","801019","NEW",\N,\N,"9244293","0122265","19108728FB52202303160008RXTL8PX                             ",\N,"STAPLES","KAYLA",\N,\N,1.0000,"19880512","M1","H",\N,\N,\N,0.000000000,0,0,"INFORM","100B-CC","DMV",\N,\N,"","",2023-03-17 11:25:11,2023-05-03 21:12:42,100,\N,"10.194.6.20",0.0000,\N,18259951,1084,0,0,"bpsbatch",\N,\N,\N,3765412351,"F","004886929",\N,\N,\N,\N,\N,\N,\N,"BR3","HFSED6S46MPJSZFR9TYURV","HnGZLYgFnzGxJ5SnZbd2mY",\N
"15929491T000785",9,"202355MLC51",2023-05-04 01:17:10,\N,"ME","801019","NEW",\N,\N,"9244293","0122265","19108728FB52202303220008SS2LWPX                             ",\N,"STAPLES","KAYLA",\N,\N,1.0000,"19880512","M1","H",\N,\N,\N,0.000000000,0,0,"INFORM","100B-CC","DMV",\N,\N,"","",2023-03-23 11:38:55,2023-05-03 21:12:42,100,\N,"10.194.6.20",0.0000,\N,18259951,1087,0,0,"bpsbatch",\N,\N,\N,3782386051,"F","004886929",\N,\N,\N,\N,\N,\N,\N,"BR3","HGJRG3DGOCVJGI4CR3WBIZ","HnGZLYgFnzGxJ5SnZbd2mY",\N
"15929491T000786",9,"202355MLC5C",2023-05-04 01:17:10,\N,"ME","801019","NEW",\N,\N,"9244293","0122265","19108728FB52202303220008SS2O8PX                             ",\N,"STAPLES","KAYLA",\N,\N,1.0000,"19880512","M1","H",\N,\N,\N,0.000000000,0,0,"INFORM","100B-CC","DMV",\N,\N,"","",2023-03-23 11:38:55,2023-05-03 21:12:42,100,\N,"10.194.6.20",0.0000,\N,18259951,1088,0,0,"bpsbatch",\N,\N,\N,3782386061,"F","004886929",\N,\N,\N,\N,\N,\N,\N,"BR3","HGJRGMFT6TCRXOGVWCWYQH","HnGZLYgFnzGxJ5SnZbd2mY",\N
"15935501T000432",9,"202355RBGFP",2023-05-04 01:17:10,\N,"DE","801008","REN",\N,\N,"2122322","0122260","0896B021FBAE20230324000AJ0B3DPP                             ",\N,"HUANG","HAONAN",\N,\N,1.0000,"19990730","MG","H",\N,\N,\N,0.000000000,0,0,"INFORM","100B-CC","DMV",\N,\N,"","",2023-03-24 11:40:47,2023-05-03 21:12:42,100,\N,"10.194.6.20",0.0000,\N,18259951,1089,0,0,"bpsbatch",\N,\N,\N,3785413011,"M","313737122",\N,\N,\N,\N,\N,\N,\N,"BR3","HGSN3BFUYGSJURV1WRADAJ","HnGZLYgFnzGxJ5SnZbd2mY",\N
"15946081T000989",9,"202356DF691",2023-05-04 01:17:10,\N,"ME","801019","NEW",\N,\N,"9244293","0122265","19108728FB52202303240008T5NYKPX                             ",\N,"STAPLES","KAYLA",\N,\N,1.0000,"19880512","M1","H",\N,\N,\N,0.000000000,0,0,"INFORM","100B-CC","DMV",\N,\N,"","",2023-03-27 11:14:32,2023-05-03 21:12:42,100,\N,"10.194.6.20",0.0000,\N,18259951,1090,0,0,"bpsbatch",\N,\N,\N,3800876671,"F","004886929",\N,\N,\N,\N,\N,\N,\N,"BR3","HGSJNV5G4KC9VSCKMK8EO2","HnGZLYgFnzGxJ5SnZbd2mY",\N
"15951191T000802",9,"202356PTFMP",2023-05-04 01:17:10,\N,"DE","801008","NEW",\N,\N,"0308903","0122260","08332A21FAD520230327000AJFYM5PP                             ",\N,"HARRIS","MICHAEL",\N,\N,1.0000,"19600120","M2","H",\N,\N,\N,0.000000000,0,0,"INFORM","100B-CC","DMV",\N,\N,"","",2023-03-28 11:32:52,2023-05-03 21:12:42,100,\N,"10.194.6.20",0.0000,\N,18259951,1091,0,0,"bpsbatch",\N,\N,\N,3808497291,"M","221583530",\N,\N,\N,\N,\N,\N,\N,"BR3","HH2BMZGZOJA7V4P7D1LZ8H","HnGZLYgFnzGxJ5SnZbd2mY",\N
"15956511T001458",9,"2023570M2GP",2023-05-04 01:17:10,\N,"ME","801019","NEW",\N,\N,"9244293","0122265","19108728FB52202303280008TJSHWPX                             ",\N,"STAPLES","KAYLA",\N,\N,1.0000,"19880512","M1","H",\N,\N,\N,0.000000000,0,0,"INFORM","100B-CC","DMV",\N,\N,"","",2023-03-29 11:46:17,2023-05-03 21:12:42,100,\N,"10.194.6.20",0.0000,\N,18259951,1092,0,0,"bpsbatch",\N,\N,\N,3815615241,"F","004886929",\N,\N,\N,\N,\N,\N,\N,"BR3","HHAZWWNROIAN9XC3IAMUCX","HnGZLYgFnzGxJ5SnZbd2mY",\N
"16019791T000672",9,"202358CM3DP",2023-05-04 01:17:10,\N,"DE","801008","NEW",\N,\N,"0308903","0122260","08332A21FAD520230403000AKFIQ9PP                             ",\N,"HARRIS","MICHAEL",\N,\N,1.0000,"19600120","M1","H",\N,\N,\N,0.000000000,0,0,"INFORM","100B-CC","DMV",\N,\N,"","",2023-04-04 12:56:43,2023-05-03 21:12:42,100,\N,"10.194.6.20",0.0000,\N,18259951,1094,0,0,"bpsbatch",\N,\N,\N,3848826081,"M","221583530",\N,\N,\N,\N,\N,\N,\N,"BR3","HI2GRVWYKHICGBJC1RAAPH","HnGZLYgFnzGxJ5SnZbd2mY",\N
"16028091T000141",9,"202358MM06P",2023-05-04 01:17:10,\N,"DE","801008","NEW",\N,\N,"2122322","0122260","0896B021FBAE20230404000AKONQ9PP                             ",\N,"HUANG","HAONAN",\N,\N,1.0000,"19990730","M1","H",\N,\N,\N,0.000000000,0,0,"INFORM","100B-CC","DMV",\N,\N,"","",2023-04-05 11:26:14,2023-05-03 21:12:42,100,\N,"10.194.6.20",0.0000,\N,18259951,1095,0,0,"bpsbatch",\N,\N,\N,3855303201,"M","313737122",\N,\N,\N,\N,\N,\N,\N,"BR3","HIAWVRATMFBUSXJMU2XNGN","HnGZLYgFnzGxJ5SnZbd2mY",\N
"16028101T000011",9,"202358MM9J1",2023-05-04 01:17:10,\N,"ME","801019","NEW",\N,\N,"9244293","0122265","19108728FB52202304040008UJS94PX                             ",\N,"STAPLES","KAYLA",\N,\N,1.0000,"19880512","M1","H",\N,\N,\N,0.000000000,0,0,"INFORM","100B-CC","DMV",\N,\N,"","",2023-04-05 11:26:15,2023-05-03 21:12:42,100,\N,"10.194.6.20",0.0000,\N,18259951,1096,0,0,"bpsbatch",\N,\N,\N,3855311581,"F","004886929",\N,\N,\N,\N,\N,\N,\N,"BR3","HIAWSEGYZXH9XHJCHXCTWB","HnGZLYgFnzGxJ5SnZbd2mY",\N
"16057371T000599",9,"202359NBGKC",2023-05-04 01:17:10,\N,"ME","801019","NEW",\N,\N,"9244293","0122265","19108728FB52202304060008UX1XSPX                             ",\N,"STAPLES","KAYLA",\N,\N,1.0000,"19880512","M1","H",\N,\N,\N,0.000000000,0,0,"INFORM","100B-CC","DMV",\N,\N,"","",2023-04-10 09:51:18,2023-05-03 21:12:42,100,\N,"10.194.6.20",0.0000,\N,18259951,1097,0,0,"bpsbatch",\N,\N,\N,3880183121,"F","004886929",\N,\N,\N,\N,\N,\N,\N,"BR3","HIT23FSTTZBKGIDOQXUDJG","HnGZLYgFnzGxJ5SnZbd2mY",\N
"16058261T000405",9,"202359P9CF1",2023-05-04 01:17:10,\N,"DE","801008","NEW",\N,\N,"0308903","0122260","08332A21FAD520230406000AL30CHPP                             ",\N,"HARRIS","MICHAEL",\N,\N,1.0000,"19600120","M2","H",\N,\N,\N,0.000000000,0,0,"INFORM","100B-CC","DMV",\N,\N,"","",2023-04-10 11:40:40,2023-05-03 21:12:42,100,\N,"10.194.6.20",0.0000,\N,18259951,1098,0,0,"bpsbatch",\N,\N,\N,3880963291,"M","221583530",\N,\N,\N,\N,\N,\N,\N,"BR3","HIT2JKEMQXDCSTRCQT8XN9","HnGZLYgFnzGxJ5SnZbd2mY",\N
"16059691T000106",9,"202359PNDXP",2023-05-04 01:17:10,\N,"DE","801008","NEW",\N,\N,"0308903","0122260","08332A21FAD520230407000ALAO8PPP                             ",\N,"HARRIS","MICHAEL",\N,\N,1.0000,"19600120","M1","H",\N,\N,\N,0.000000000,0,0,"INFORM","100B-CC","DMV",\N,\N,"","",2023-04-10 12:49:21,2023-05-03 21:12:42,100,\N,"10.194.6.20",0.0000,\N,18259951,1099,0,0,"bpsbatch",\N,\N,\N,3881261661,"M","221583530",\N,\N,\N,\N,\N,\N,\N,"BR3","HITKPYBSXWRVUU96PQ4PWG","HnGZLYgFnzGxJ5SnZbd2mY",\N
"16071911T000173",9,"202359SZWMP",2023-05-04 01:17:10,\N,"DE","801008","NEW",\N,\N,"1334642","0122260","081C1C21FAD520230410000ALKW7TPP                             ",\N,"LEWIS","ADIN",\N,\N,1.0000,"19840807","M1","H",\N,\N,\N,0.000000000,0,0,"INFORM","100B-CC","DMV",\N,\N,"","",2023-04-11 11:58:22,2023-05-03 21:12:42,100,\N,"10.194.6.20",0.0000,\N,18259951,1100,0,0,"bpsbatch",\N,\N,\N,3883947891,"M","221788691",\N,\N,\N,\N,\N,\N,\N,"BR3","HJ3BTJMCG4Y8PVNUIHWXMJ","HnGZLYgFnzGxJ5SnZbd2mY",\N
"16078571T000145",9,"202359W1T9P",2023-05-04 01:17:10,\N,"DE","801008","NEW",\N,\N,"2122322","0122260","0896B021FBAE20230411000ALSP8DPP                             ",\N,"HUANG","HAONAN",\N,\N,1.0000,"19990730","M1","H",\N,\N,\N,0.000000000,0,0,"INFORM","100B-CC","DMV",\N,\N,"","",2023-04-12 11:26:07,2023-05-03 21:12:42,100,\N,"10.194.6.20",0.0000,\N,18259951,1101,0,0,"bpsbatch",\N,\N,\N,3885619791,"M","313737122",\N,\N,\N,\N,\N,\N,\N,"BR3","HJBVVXK4JKBGTEEHCPXVEU","HnGZLYgFnzGxJ5SnZbd2mY",\N
"16084391T000886",9,"20235B1J39C",2023-05-04 01:17:10,\N,"ME","801019","NEW",\N,\N,"9244293","0122265","19108728FB52202304120008VQHSGPX                             ",\N,"STAPLES","KAYLA",\N,\N,1.0000,"19880512","M1","H",\N,\N,\N,0.000000000,0,0,"INFORM","100B-CC","DMV",\N,\N,"","",2023-04-13 11:32:39,2023-05-03 21:12:42,100,\N,"10.194.6.20",0.0000,\N,18259951,1102,0,0,"bpsbatch",\N,\N,\N,3889244981,"F","004886929",\N,\N,\N,\N,\N,\N,\N,"BR3","HJKS4GWSXIXPX3T5VY7ZJK","HnGZLYgFnzGxJ5SnZbd2mY",\N
"16090591T000455",9,"20235B3L9FP",2023-05-04 01:17:10,\N,"DE","801008","NEW",\N,\N,"0308903","0122260","08332A21FAD520230413000AM6ZDXPP                             ",\N,"HARRIS","MICHAEL",\N,\N,1.0000,"19600120","M1","H",\N,\N,\N,0.000000000,0,0,"INFORM","100B-CC","DMV",\N,\N,"","",2023-04-14 11:32:04,2023-05-03 21:12:42,100,\N,"10.194.6.20",0.0000,\N,18259951,1103,0,0,"bpsbatch",\N,\N,\N,3890924511,"M","221583530",\N,\N,\N,\N,\N,\N,\N,"BR3","HJUDRHYG77NSNTXCAGEVNK","HnGZLYgFnzGxJ5SnZbd2mY",\N
"16090611T001185",9,"20235B3MFJ1",2023-05-04 01:17:10,\N,"ME","801019","NEW",\N,\N,"9244293","0122265","19108728FB52202304130008VYVWWPX                             ",\N,"STAPLES","KAYLA",\N,\N,1.0000,"19880512","M1","H",\N,\N,\N,0.000000000,0,0,"INFORM","100B-CC","DMV",\N,\N,"","",2023-04-14 11:45:57,2023-05-03 21:12:42,100,\N,"10.194.6.20",0.0000,\N,18259951,1104,0,0,"bpsbatch",\N,\N,\N,3890955181,"F","004886929",\N,\N,\N,\N,\N,\N,\N,"BR3","HJUDQQVYM2LI4BZAPQFN9Q","HnGZLYgFnzGxJ5SnZbd2mY",\N
"16102611T000126",9,"20235BJJDJC",2023-05-04 01:17:10,\N,"DE","801008","NEW",\N,\N,"0308903","0122260","08332A21FAD520230414000AMF54LPP                             ",\N,"HARRIS","MICHAEL",\N,\N,1.0000,"19600120","M1","H",\N,\N,\N,0.000000000,0,0,"INFORM","100B-CC","DMV",\N,\N,"","",2023-04-17 11:33:55,2023-05-03 21:12:42,100,\N,"10.194.6.20",0.0000,\N,18259951,1105,0,0,"bpsbatch",\N,\N,\N,3901403291,"M","221583530",\N,\N,\N,\N,\N,\N,\N,"BR3","HJUJXQIMG2DSSPYMSXCS5L","HnGZLYgFnzGxJ5SnZbd2mY",\N
"16102611T000127",9,"20235BJJDJP",2023-05-04 01:17:10,\N,"DE","801008","NEW",\N,\N,"1334642","0122260","081C1C21FAD520230414000AMF4RDPP                             ",\N,"LEWIS","ADIN",\N,\N,1.0000,"19840807","M1","H",\N,\N,\N,0.000000000,0,0,"INFORM","100B-CC","DMV",\N,\N,"","",2023-04-17 11:33:55,2023-05-03 21:12:42,100,\N,"10.194.6.20",0.0000,\N,18259951,1106,0,0,"bpsbatch",\N,\N,\N,3901403301,"M","221788691",\N,\N,\N,\N,\N,\N,\N,"BR3","HJUJXQGNJJHU1NEJC1SBCA","HnGZLYgFnzGxJ5SnZbd2mY",\N
"16112581T000818",9,"20235BN4SK1",2023-05-04 01:17:10,\N,"DE","801008","NEW",\N,\N,"2122322","0122260","0896B021FBAE20230417000AMOZPHPP                             ",\N,"HUANG","HAONAN",\N,\N,1.0000,"19990730","M1","H",\N,\N,\N,0.000000000,0,0,"INFORM","100B-CC","DMV",\N,\N,"","",2023-04-18 11:30:24,2023-05-03 21:12:42,100,\N,"10.194.6.20",0.0000,\N,18259951,1107,0,0,"bpsbatch",\N,\N,\N,3904330111,"M","313737122",\N,\N,\N,\N,\N,\N,\N,"BR3","HK3DWCEHWAV8BMJ2SM5ZJ6","HnGZLYgFnzGxJ5SnZbd2mY",\N
"15678491T000494",9,"202350DP7JC",2023-05-04 01:17:10,\N,"DE","801008","NEW",\N,\N,"1334642","0122260","081C1C21FAD520230210002WYH0ODDP                             ",\N,"LEWIS","ADIN",\N,\N,1.0000,"19840807","MY","H",\N,\N,\N,0.000000000,0,0,"INFORM","100B-CC","DUP",\N,\N,"","",2023-02-13 11:34:07,2023-05-03 21:12:42,100,\N,"10.194.6.20",0.0000,\N,18259951,1077,0,0,"bpsbatch",\N,\N,\N,3655293791,"M","221788691",\N,\N,\N,\N,\N,\N,\N,"BR3","HAQCDZ6ZJSJKPRGSFYCFVX","HnGZLYgFnzGxJ5SnZbd2mY",\N
"15763371T000494",9,"20232W49CQD",2023-05-04 01:17:10,\N,"DE","801008","NEW",\N,\N,"2143072","0122260","08332A21FAD520230223002XOKBSTDP                             ",\N,"GIBBS","SHIKEY",\N,\N,1.0000,"19930513","MY","H",\N,\N,\N,0.000000000,0,0,"INFORM","100B-CC","DUP",\N,\N,"","",2023-02-24 11:25:12,2023-05-03 21:12:42,100,\N,"10.194.6.20",0.0000,\N,18259951,1078,0,0,"bpsbatch",\N,\N,\N,2117593572,"F","214393852",\N,\N,\N,\N,\N,\N,\N,"BR3","HCR4RMMIES5SKZKEZX6YGG","HnGZLYgFnzGxJ5SnZbd2mY",\N
"15903161T000427",9,"202354XM4LP",2023-05-04 01:17:10,\N,"DE","801008","NEW",\N,\N,"1858136","0122260","0895C921FAA620230316002Z2HQCXDP                             ",\N,"BURLEY","NYEER","S",\N,1.0000,"19971023","MY","H",\N,\N,\N,0.000000000,0,0,"INFORM","100B-CC","DUP",\N,\N,"","",2023-03-17 11:25:09,2023-05-03 21:12:42,100,\N,"10.194.6.20",0.0000,\N,18259951,1081,0,0,"bpsbatch",\N,\N,\N,3765397161,"M","221901503",\N,\N,\N,\N,\N,\N,\N,"BR3","HFSEETKXPWEHIUGKGVKNA1","HnGZLYgFnzGxJ5SnZbd2mY",\N
"15924871T000023",9,"202355JPPC1",2023-05-04 01:17:10,\N,"DE","801008","NEW",\N,\N,"308903","0122260","08332A21FAD520230321000AIKF61PP                             ",\N,"HARRIS","MICHAEL",\N,\N,1.0000,"19600120","M6","H",\N,\N,\N,0.000000000,0,0,"INFORM","100B-CC","DUP",\N,\N,"","",2023-03-22 11:24:56,2023-05-03 21:12:42,100,\N,"10.194.6.20",0.0000,\N,18259951,1085,0,0,"bpsbatch",\N,\N,\N,3780046231,"M","221583530",\N,\N,\N,\N,\N,\N,\N,"BR3","HG9ZE5ETUJ29AZVKDCFM4O","HnGZLYgFnzGxJ5SnZbd2mY",\N
"15924871T000852",9,"202355JQ0KC",2023-05-04 01:17:10,\N,"DE","801008","NEW",\N,\N,"308903","0122260","08332A21FAD520230321002ZB02A7DP                             ",\N,"HARRIS","MICHAEL",\N,\N,1.0000,"19600120","MY","H",\N,\N,\N,0.000000000,0,0,"INFORM","100B-CC","DUP",\N,\N,"","",2023-03-22 11:24:56,2023-05-03 21:12:42,100,\N,"10.194.6.20",0.0000,\N,18259951,1086,0,0,"bpsbatch",\N,\N,\N,3780054521,"M","221583530",\N,\N,\N,\N,\N,\N,\N,"BR3","HG9ZFLVHFC8JJTTD4J9WMZ","HnGZLYgFnzGxJ5SnZbd2mY",\N
"16019791T000664",9,"202358CM3B1",2023-05-04 01:17:10,\N,"DE","801008","NEW",\N,\N,"1334642","0122260","081C1C21FAD520230403000AKKWS9PP                             ",\N,"LEWIS","ADIN",\N,\N,1.0000,"19840807","M6","H",\N,\N,\N,0.000000000,0,0,"INFORM","100B-CC","DUP",\N,\N,"","",2023-04-04 12:56:43,2023-05-03 21:12:42,100,\N,"10.194.6.20",0.0000,\N,18259951,1093,0,0,"bpsbatch",\N,\N,\N,3848826001,"M","221788691",\N,\N,\N,\N,\N,\N,\N,"BR3","HI2GRVZJGFPEA2TUGL16GP","HnGZLYgFnzGxJ5SnZbd2mY",\N
"16113001T009492",9,"20235BNJ7GC",2023-05-04 01:17:10,\N,"DE","801033","NEW",\N,\N,"1653801","0122231","3315D307FBBF202304170030ZBQG1D7                             ",\N,"CASSEUS","FRANCKLIN",\N,\N,1.0000,"19770708","MY","H",\N,\N,\N,0.000000000,0,0,"INFORM","100B-CC","DUP",\N,\N,"","",2023-04-18 13:15:07,2023-05-03 21:12:42,100,\N,"10.194.6.20",0.0000,\N,18259951,1108,0,0,"bpsbatch",\N,\N,\N,3904638731,"M","580390362",\N,\N,\N,\N,\N,\N,\N,"BR3","HK4H2VGH3CCG42CGVMTWDI","HnGZLYgFnzGxJ5SnZbd2mY",\N
"16230751T000552",9,"20235FXQS61",2023-05-04 01:17:10,\N,"MO","801025","NEW",\N,\N,"D149241014","0122232","25197D14FB81202305030007MUFTUPG                             ",\N,"SCHLUETER","ERICA","M",\N,1.0000,"20020827","MG","C",\N,\N,\N,0.000000000,0,0,"INFORM","100B-CC","INH",\N,\N,"","",2023-05-03 19:35:21,2023-05-03 21:12:42,100,\N,"10.194.6.20",0.0000,\N,18259951,4214,0,0,"bpsbatch",\N,\N,\N,3984195781,"F",\N,\N,\N,\N,\N,\N,\N,\N,"BR3","HNFO39ODQJYCFASQBIC7DT","HnGZLYgFnzGxJ5SnZbd2mY",\N
"16230531T000022",9,"20235FXQ0LC",2023-05-04 01:17:11,\N,"AL","491784","   ",\N,\N,"5376733","0117019","19956213-44EF-49FC-B925-6AE8615F954A                        ",\N,"MAY","JAMES",\N,\N,1.0000,"19690916",\N,"R",\N,\N,\N,0.000000000,0,0,"INFORM","100B-CC","PRE",\N,\N,"","",2023-05-03 19:05:06,2023-05-03 21:12:42,100,\N,"10.194.6.20",0.0000,\N,18259951,2548,0,0,"bpsbatch",\N,\N,\N,3984174551,\N,\N,\N,\N,\N,\N,\N,\N,\N,"BR3","HNFZDWOUBY48XKDZ3E3MMX","HnGZLYgFnzGxJ5SnZbd2mY",\N
"16230601T000010",9,"20235FXQ48P",2023-05-04 01:17:11,\N,"NC","503291","TWO",\N,\N,"40228173","0117009","9AE0F854-A138-478E-A093-9B426CE33F30                        ",\N,"GUTIERREZ","DOMINIC",\N,\N,1.0000,"20030814",\N,"R",\N,\N,\N,0.000000000,0,0,"INFORM","100B-CC","PRE",\N,\N,"","",2023-05-03 19:07:07,2023-05-03 21:12:42,100,\N,"10.194.6.20",0.0000,\N,18259951,2747,0,0,"bpsbatch",\N,\N,\N,3984177861,\N,\N,\N,\N,\N,\N,\N,\N,\N,"BR3","HNFYYAHVKOKH563DK6X3Z5","HnGZLYgFnzGxJ5SnZbd2mY",\N
"16230601T000123",9,"20235FXQ5JC",2023-05-04 01:17:12,\N,"NC","503291","TWO",\N,\N,"723310","0117009","B5DBAEA2-A1D8-4EA5-94AA-8EF4DACA700C                        ",\N,"WILLIAMS","MAGNOLIA","H",\N,1.0000,"19480501",\N,"R",\N,\N,\N,0.000000000,0,0,"INFORM","100B-CC","PRE",\N,\N,"","",2023-05-03 19:07:07,2023-05-03 21:12:42,100,\N,"10.194.6.20",0.0000,\N,18259951,2857,0,0,"bpsbatch",\N,\N,\N,3984178991,\N,\N,\N,\N,\N,\N,\N,\N,\N,"BR3","HNFYYAIDRQWHUXQIJQ1G4V","HnGZLYgFnzGxJ5SnZbd2mY",\N
"16230621T000019",9,"20235FXQ6W1",2023-05-04 01:17:12,\N,"OH","491475","   ",\N,\N,"SZ412470","0149028","2495963                                                     ",\N,"CASH","JOSHUA",\N,\N,1.0000,"19810904",\N,"R",\N,\N,\N,0.000000000,0,0,"INFORM","100B-CC","PRE",\N,\N,"","",2023-05-03 19:07:10,2023-05-03 21:12:42,100,\N,"10.194.6.20",0.0000,\N,18259951,2967,0,0,"bpsbatch",\N,\N,\N,3984180211,\N,\N,\N,\N,\N,\N,\N,\N,\N,"BR3","HNFYXYXFNKKW3KBTAIZBUC","HnGZLYgFnzGxJ5SnZbd2mY",\N
"ADW20230505135113348",9,"2023AD231255JS5X7",2023-05-05 17:51:15,\N,"NJ","491409","COM",\N,\N,"W02510947407614","1570012","20230505135112000421",\N,"WALCZAK","BOGUSLAW","","",1.0000,"19610726","","R",\N,\N,\N,0.000000000,0,0,"INFORM","INFORM","PRE",\N,\N,"","",2023-05-05 17:51:13,2023-05-05 17:51:15,100,\N,"10.247.44.82",1.1640,\N,\N,\N,0,0,"mvr_log_fwd",\N,\N,\N,\N,"M","",\N,"I","62746056871","N","Y","N",\N,"WORKFLOW","HnWn77c19yn99nFq3DMYam","HnWn79vA7f4pVqYDVmuKuu","HnWn79rPYF3v8sYUdtAC2T"
"ADW20230506183909630",9,"2023AD231267K1G0Z",2023-05-06 22:39:14,\N,"NV","583550","BL2",\N,\N,"1406939775","1570012","cd8d4f36-3efa-40f3-a1a7-80e91a8d1709",\N,"CHATMAN","NEFERTERIA","","",1.0000,"19771016","","C",\N,\N,\N,0.000000000,0,0,"INFORM","INFORM","DMV",\N,\N,"","",2023-05-06 22:39:10,2023-05-06 22:39:13,100,\N,"10.247.44.82",2.8950,\N,\N,\N,0,0,"mvr_log_fwd",\N,\N,\N,\N,"F","262932732",\N,"L","1971338539","Y","Y","Y",\N,"WORKFLOW","HngohBtpD1MrgtQhZK2giV","HngohEnJGGat2f7SgJCVZs","HngohEaRAZJAKC2Lp5WbYa"
"BBW20230507141546552",9,"2023BB231275SQFXC",2023-05-07 18:15:51,\N,"TX","586345","",\N,\N,"37723995","1570012","d26bed8b-6a7e-4bd8-a595-666411aa8425",\N,"JOHNSON","MEGAN","","",1.0000,"19980915","","C",\N,\N,\N,0.000000000,0,0,"INFORM","INFORM","DMV",\N,\N,"","",2023-05-07 18:15:47,2023-05-07 18:15:50,100,\N,"10.247.36.63",3.0550,\N,\N,\N,0,0,"mvr_log_fwd",\N,\N,\N,\N,"","",\N,"I","191570236743","N","Y","N",\N,"WORKFLOW","HnodiaHzHsKsKdN4RnukbV","HnodidNQwyB5wMbHnzizvt","HnodidGwJX5eGQVi3g3TT1"
"AAW20230508170018820",9,"2023AA231286ZVZRZ",2023-05-08 21:00:20,\N,"UT","583550","BL2",\N,\N,"152532428","1570012","6130a51d-f547-455f-9410-a00d7209ca27",\N,"MEAD","STEPHANIE","","",1.0000,"19751207","","R",\N,\N,\N,0.000000000,0,0,"INFORM","INFORM","PRE",\N,\N,"","",2023-05-08 21:00:19,2023-05-08 21:00:20,100,\N,"10.247.44.82",1.0000,\N,\N,\N,0,0,"mvr_log_fwd",\N,\N,\N,\N,"F","528553324",\N,"L","1692533743","Y","Y","Y",\N,"WORKFLOW","HnxwmjEamguGZmngFpGYG9","Hnxwmjzz7iMQHHSPnAdvo8","HnxwmjpZ6A8bowU9mVkqT6"
"ACW20230509124842604",9,"2023AC23129543S03",2023-05-09 16:48:48,\N,"TX","360048","AAA",\N,\N,"34529059","","N2023210426481",\N,"COLLINS","STEVEN","","",1.0000,"19951221","","H",\N,\N,\N,0.000000000,0,0,"INFORM","INFORM","DMV",\N,\N,"","",2023-05-09 16:48:43,2023-05-09 16:48:46,100,\N,"10.247.44.82",3.6410,\N,\N,\N,0,0,"mvr_log_fwd",\N,\N,\N,\N,"M","641501434",\N,"I","180024530075","N","Y","N",\N,"WORKFLOW","Ho5qm7pGB2yJC4mgFE9smE","Ho5qm7ovTJ6x8C11U76KXa",""
